<svg width="18" height="18" viewBox="0 0 18 18" fill="none" xmlns="http://www.w3.org/2000/svg">
<path d="M15.3639 2.63605C13.6641 0.936141 11.4039 0 9 0C6.59602 0 4.33593 0.936141 2.63605 2.63602C0.936176 4.33589 0 6.59602 0 9C0 11.404 0.936141 13.6641 2.63605 15.364C4.33589 17.0639 6.59602 18 8.99996 18C11.4039 18 13.6641 17.0639 15.3639 15.364C17.0638 13.6641 18 11.404 18 9C18 6.59598 17.0638 4.33589 15.3639 2.63605ZM12.9675 12.2218C13.1734 12.4277 13.1734 12.7616 12.9675 12.9676C12.8645 13.0705 12.7296 13.122 12.5946 13.122C12.4597 13.122 12.3247 13.0705 12.2218 12.9676L9 9.7458L5.77825 12.9676C5.67524 13.0705 5.54031 13.122 5.40534 13.122C5.27041 13.122 5.13541 13.0705 5.03251 12.9676C4.82657 12.7616 4.82657 12.4277 5.03251 12.2218L8.25423 9.00004L5.03251 5.77828C4.82657 5.57237 4.82657 5.23846 5.03251 5.03251C5.23842 4.8266 5.5723 4.8266 5.77828 5.03251L9 8.25427L12.2217 5.03251C12.4276 4.8266 12.7615 4.8266 12.9675 5.03251C13.1734 5.23842 13.1734 5.57234 12.9675 5.77828L9.74573 9.00004L12.9675 12.2218Z" fill="#C4C2BE"/>
</svg>
